Memory Length,500,
Trigger Level,1.760E-01,
Source,CH2,
Vertical Units,V,
Vertical Scale,1.000E-01,
Vertical Position,0.000E+00,
Horizontal Units,s,
Horizontal Scale,1.000E-06,
Horizontal Position,0.000E+00,
Horizontal Mode,Main,
Sampling Period,4.000E-08,
Firmwave,V1.04,
Time,25-Apr-18 15:23,
Waveform Data,
43,
42,
40,
39,
36,
35,
34,
33,
32,
31,
31,
30,
30,
29,
30,
30,
29,
31,
31,
33,
33,
34,
36,
36,
38,
40,
41,
42,
44,
46,
47,
49,
50,
52,
54,
55,
57,
58,
58,
60,
60,
61,
61,
61,
62,
62,
62,
62,
62,
62,
62,
62,
62,
62,
62,
63,
63,
62,
62,
61,
61,
61,
59,
59,
58,
56,
56,
54,
53,
50,
50,
48,
46,
45,
43,
42,
40,
39,
37,
36,
34,
34,
33,
31,
31,
31,
30,
29,
30,
30,
30,
30,
31,
32,
32,
33,
34,
36,
38,
39,
40,
42,
43,
46,
47,
48,
49,
51,
52,
54,
55,
57,
58,
59,
60,
60,
61,
61,
61,
61,
62,
61,
62,
62,
62,
62,
62,
62,
62,
62,
61,
61,
61,
61,
60,
59,
59,
58,
58,
57,
56,
53,
52,
51,
49,
48,
47,
45,
43,
42,
41,
39,
37,
37,
35,
34,
33,
32,
31,
30,
30,
29,
29,
29,
30,
29,
30,
32,
32,
33,
34,
35,
37,
39,
40,
41,
43,
44,
47,
47,
50,
50,
52,
53,
55,
56,
57,
59,
59,
61,
61,
61,
61,
62,
63,
62,
64,
63,
63,
63,
62,
62,
63,
62,
62,
62,
63,
61,
62,
61,
60,
58,
59,
58,
57,
55,
54,
51,
50,
49,
48,
46,
45,
43,
42,
40,
38,
36,
37,
35,
32,
32,
31,
31,
30,
29,
29,
30,
29,
30,
31,
31,
32,
33,
34,
34,
35,
38,
39,
40,
43,
44,
45,
46,
49,
50,
51,
53,
54,
55,
58,
58,
59,
59,
60,
61,
62,
62,
61,
62,
62,
62,
63,
63,
61,
62,
62,
62,
61,
62,
61,
62,
60,
60,
61,
59,
58,
57,
56,
55,
54,
53,
51,
50,
49,
46,
44,
43,
42,
41,
40,
37,
36,
35,
34,
32,
31,
31,
30,
30,
29,
30,
29,
30,
30,
30,
32,
32,
33,
34,
35,
38,
39,
40,
42,
44,
46,
46,
48,
50,
51,
52,
54,
56,
57,
58,
58,
60,
60,
62,
61,
62,
62,
62,
62,
63,
62,
62,
62,
62,
62,
62,
61,
62,
62,
62,
61,
61,
60,
60,
58,
58,
57,
57,
55,
53,
51,
50,
49,
47,
46,
44,
43,
41,
40,
39,
37,
34,
34,
32,
32,
31,
30,
30,
30,
29,
29,
29,
29,
30,
31,
32,
32,
34,
35,
36,
38,
40,
40,
43,
44,
46,
48,
49,
50,
52,
53,
54,
56,
58,
58,
60,
60,
61,
61,
62,
62,
62,
63,
63,
63,
63,
64,
63,
62,
62,
62,
62,
62,
61,
62,
61,
61,
61,
59,
58,
58,
56,
55,
54,
52,
51,
50,
49,
46,
44,
43,
41,
40,
39,
38,
36,
36,
33,
32,
32,
31,
30,
30,
29,
30,
30,
30,
31,
31,
32,
32,
34,
35,
37,
38,
39,
40,
42,
43,
45,
46,
47,
50,
51,
53,
54,
56,
56,
58,
58,
59,
61,
61,
61,
62,
62,
62,
62,
62,
63,
62,
62,
62,
61,
