Memory Length,500,
Trigger Level,0.000E+00,
Source,CH1,
Vertical Units,V,
Vertical Scale,2.000E-02,
Vertical Position,0.000E+00,
Horizontal Units,s,
Horizontal Scale,1.000E-01,
Horizontal Position,0.000E+00,
Horizontal Mode,Scan Mode,
Display Last Dot Address,21,
Waveform Last Dot Address,541,
Sampling Period,4.000E-03,
Firmwave,V1.04,
Time,23-Mar-12 21:51,
Waveform Data,
16,
2,
15,
12,
12,
6,
12,
11,
11,
15,
15,
15,
18,
18,
21,
12,
11,
15,
12,
18,
14,
16,
16,
8,
8,
12,
6,
11,
3,
4,
2,
0,
4,
2,
0,
0,
4,
5,
3,
4,
4,
6,
2,
4,
8,
8,
3,
3,
-2,
6,
6,
6,
-2,
9,
0,
7,
-1,
3,
6,
7,
0,
1,
-1,
-2,
6,
4,
3,
-1,
3,
4,
4,
5,
6,
2,
2,
1,
3,
6,
0,
0,
7,
4,
1,
3,
-5,
8,
6,
7,
1,
4,
5,
6,
7,
3,
4,
12,
8,
14,
9,
11,
8,
13,
10,
12,
14,
12,
14,
10,
10,
10,
-5,
8,
8,
5,
2,
2,
2,
1,
5,
8,
7,
10,
1,
10,
3,
3,
4,
4,
0,
5,
7,
0,
6,
6,
0,
-9,
-1,
4,
22,
36,
55,
58,
81,
74,
58,
46,
25,
13,
2,
-2,
-4,
0,
-2,
2,
-4,
6,
4,
6,
5,
6,
-1,
6,
2,
2,
-3,
8,
1,
7,
3,
7,
2,
9,
6,
11,
6,
7,
6,
3,
4,
4,
7,
6,
6,
9,
12,
11,
7,
12,
12,
16,
12,
10,
6,
13,
15,
17,
15,
18,
10,
18,
20,
11,
18,
19,
18,
14,
18,
7,
14,
10,
15,
7,
6,
6,
3,
-3,
0,
4,
7,
2,
2,
1,
3,
0,
-1,
10,
5,
4,
0,
0,
8,
5,
0,
7,
6,
0,
1,
-2,
6,
4,
2,
4,
3,
10,
0,
5,
0,
6,
2,
1,
-1,
1,
4,
2,
3,
0,
-4,
6,
0,
-1,
-2,
4,
1,
0,
4,
-2,
1,
6,
4,
1,
6,
6,
6,
2,
0,
2,
3,
6,
0,
6,
10,
2,
8,
9,
6,
6,
8,
11,
11,
15,
9,
10,
12,
10,
9,
12,
10,
4,
7,
4,
6,
1,
8,
-2,
7,
-1,
-1,
2,
3,
4,
4,
6,
4,
3,
4,
-2,
0,
6,
4,
4,
3,
-3,
0,
-5,
-1,
13,
23,
42,
61,
74,
82,
70,
51,
33,
20,
4,
2,
2,
3,
-1,
5,
6,
8,
-2,
4,
6,
7,
-4,
3,
3,
6,
6,
2,
3,
5,
8,
1,
1,
8,
2,
6,
0,
5,
4,
10,
6,
8,
2,
1,
12,
10,
7,
8,
9,
11,
14,
14,
12,
4,
14,
6,
13,
12,
14,
18,
12,
17,
18,
19,
9,
20,
18,
16,
16,
15,
16,
8,
12,
6,
12,
10,
-1,
2,
6,
8,
2,
2,
7,
6,
2,
0,
4,
-2,
1,
2,
-2,
3,
3,
3,
-1,
8,
4,
7,
-4,
8,
2,
7,
-2,
10,
6,
0,
-1,
7,
1,
6,
9,
4,
3,
0,
4,
4,
-2,
1,
-1,
10,
8,
0,
5,
7,
10,
-6,
0,
7,
7,
3,
3,
6,
5,
8,
7,
2,
4,
5,
11,
4,
12,
10,
15,
14,
17,
15,
12,
12,
12,
8,
10,
12,
0,
8,
3,
8,
5,
0,
4,
8,
2,
2,
5,
8,
6,
2,
-1,
4,
1,
6,
5,
0,
0,
4,
7,
