000     @SCRATCH
001     @SCRATCH
001     _RETURN_
002     @SCRATCH
003     @SCRATCH
004     @INTERRUPT_AREA
005     @INTERRUPT_AREA
006     @INTERRUPT_AREA
007     @INTERRUPT_AREA
008     @INTERRUPT_AREA
009     @INTERRUPT_AREA
00A     @INTERRUPT_AREA
00B     @INTERRUPT_AREA
00C     @INTERRUPT_AREA
00D     @INTERRUPT_AREA
00E     @INTERRUPT_AREA
00F     @INTERRUPT_AREA
010     @INTERRUPT_AREA
011     @INTERRUPT_AREA
012     @INTERRUPT_AREA
013     @INTERRUPT_AREA
014     @INTERRUPT_AREA
015     @INTERRUPT_AREA
016     @INTERRUPT_AREA
017-01A USB_stack_status
01B-01D USB_STRING_DESC_OFFSET
01E     USTATCopy
01F     usb_state
020     __setup_0_tx_size
021     USB_address_pending
022     usb_getdesc_ptr
023     usb_getdesc_len
024-025 USB_Interface
026-02C usb_cdc_line_coding
02D-02E usb_cdc_break
02F-036 usb_cdc_encapsulated_cmd
037-075 usb_cdc_put_buffer
076     usb_cdc_put_buffer_nextin
077-079 usb_cdc_get_buffer_status
07A.0   usb_cdc_got_set_line_coding
07B     usb_cdc_carrier
07C     g_LastCDCDataPacketSize
07D     __usb_cdc_state
07E     B0
07F     B1
080     B2
081     B3
082     B4
083     B5
084     B6
085     B7
086     puertoB
087     @PRINTF_X_69.P1
087     @PSTRINGCN_69.P2
087     usb_detach.@SCRATCH1
087     usb_task.@SCRATCH1
087     MAIN.@SCRATCH1
088     @delay_ms1.P1
088     @PRINTF_X_69.P2
088     @PSTRINGCN_69.@SCRATCH1
089     @PSTRINGCN_69.@SCRATCH2
08A     usb_cdc_putc.c
08B     usb_cdc_putc_fast.c
08C.0   usb_cdc_putc_fast.old_gie
08D     usb_cdc_putc_fast.@SCRATCH1
08E     usb_cdc_putc_fast.@SCRATCH2
0A0     usb_isr.TRNAttempts
0A1     usb_isr_tok_dne.en
0A1     usb_token_reset.i
0A1     usb_isr.@SCRATCH1
0A2     pidKey
0A2     usb_token_reset.@SCRATCH1
0A3     usb_isr_tkn_setup_StandardInterface.curr_config
0A3     usb_set_configured.config
0A3     usb_isr_tok_out_dne.endpoint
0A3     usb_flush_out.endpoint
0A3     usb_stall_ep.endpoint
0A3     usb_unstall_ep.endpoint
0A3     usb_endpoint_stalled.endpoint
0A3     usb_isr_tok_in_dne.endpoint
0A3     usb_isr_tok_dne.@SCRATCH1
0A3     usb_token_reset.@SCRATCH2
0A3     usb_Get_Descriptor.@SCRATCH1
0A4.0   usb_unstall_ep.direction
0A4     usb_rx_packet_size.endpoint
0A4.0   usb_stall_ep.direction
0A4.0   usb_endpoint_stalled.direction
0A4     usb_put_packet.endpoint
0A4     usb_flush_out.tgl
0A4     usb_set_address.address
0A4     usb_set_configured.en
0A4     usb_copy_desc_seg_to_ep.i
0A4     usb_isr_tok_dne.@SCRATCH2
0A4     usb_isr_tkn_setup_StandardInterface.@SCRATCH1
0A5     usb_flush_out.i
0A5-0A6 usb_put_packet.ptr
0A5     usb_endpoint_stalled.st
0A5     usb_copy_desc_seg_to_ep.c
0A5-0A6 usb_set_configured.addy
0A5     usb_rx_packet_size.@SCRATCH1
0A5     usb_stall_ep.@SCRATCH1
0A5     usb_unstall_ep.@SCRATCH1
0A5     usb_isr_tok_dne.@SCRATCH3
0A5     usb_isr_tkn_setup_StandardInterface.@SCRATCH2
0A6     usb_request_send_response.len
0A6-0A7 usb_flush_out.len
0A6     usb_rx_packet_size.@SCRATCH2
0A6     usb_stall_ep.@SCRATCH2
0A6     usb_unstall_ep.@SCRATCH2
0A6     usb_endpoint_stalled.@SCRATCH1
0A6     usb_isr_tok_dne.@SCRATCH4
0A6     usb_copy_desc_seg_to_ep.@SCRATCH1
0A7-0A8 usb_put_packet.len
0A7     usb_set_configured.new_uep
0A7     usb_endpoint_stalled.@SCRATCH2
0A7     usb_copy_desc_seg_to_ep.@SCRATCH2
0A8-0A9 usb_set_configured.len
0A8     usb_flush_out.@SCRATCH1
0A9     usb_put_packet.tgl
0A9     usb_flush_out.@SCRATCH2
0AA     usb_set_configured.i
0AA-0AB usb_put_packet.buff_add
0AB     usb_disable_endpoints.i
0AB     usb_set_configured.@SCRATCH1
0AC     usb_disable_endpoint.en
0AC     usb_flush_in.endpoint
0AC     usb_put_packet.@SCRATCH1
0AC     usb_set_configured.@SCRATCH2
0AD     usb_endpoint_is_valid.endpoint
0AD-0AE usb_flush_in.len
0AD     usb_put_packet.@SCRATCH2
0AD     usb_disable_endpoint.@SCRATCH1
0AE.0   usb_endpoint_is_valid.direction
0AE     usb_disable_endpoint.@SCRATCH2
0AF     usb_flush_in.tgl
0AF     usb_endpoint_is_valid.@SCRATCH1
0B0     usb_flush_in.i
0B1     usb_tbe.en
0B1     usb_flush_in.@SCRATCH1
0B2-0B3 @MUL1616.P1
0B2     usb_tbe.@SCRATCH1
0B2     usb_flush_in.@SCRATCH2
0B3     usb_tbe.@SCRATCH2
0B4-0B5 @MUL1616.P1
0B6     @MUL1616.@SCRATCH1
400-51F g_USBRAM
F66     UFRML
F67     UFRMH
F68     UIR
F68.0   UIR_URST
F68.1   UIR_UERR
F68.2   UIR_ACTV
F68.3   UIR_TRN
F68.4   UIR_IDLE
F68.5   UIR_STALL
F68.6   UIR_SOF
F69.0   UIE_URST
F69     UIE
F69.1   UIE_UERR
F69.2   UIE_ACTV
F69.3   UIE_TRN
F69.4   UIE_IDLE
F69.5   UIE_STALL
F69.6   UIE_SOF
F6A     UEIR
F6B     UEIE
F6C     U1STAT
F6D     UCON
F6D.1   UCON_SUSPND
F6D.2   UCON_RESUME
F6D.3   UCON_USBEN
F6D.4   UCON_PKTDIS
F6D.5   UCON_SE0
F6D.6   UCON_PBRST
F6E     UADDR
F6F     UCFG
F70-F7F g_UEP
F83     PSP_DATA
FB4.6   C1OUT
FB4.7   C2OUT
FBB     CCP_2_LOW
FBB     CCP_2
FBC     CCP_2_HIGH
FBE     CCP_1_LOW
FBE     CCP_1
FBF     CCP_1_HIGH
FE1-FE2 @WRITE_PACKED_MEMORY.P1
FE1-FE2 @READ_PACKED_MEMORY.P2
FE9-FEA @WRITE_PACKED_MEMORY.P1
FE9-FEA @READ_PROGRAM_MEMORY.P2
FE9-FEA @WRITE_PROGRAM_MEMORY.P3
FE9-FEA @READ_PACKED_MEMORY.P4
FF2     INTCON
FF2.7   INT_GIE
FF6-FF8 @WRITE_PROGRAM_MEMORY.P1
FF6-FF8 @READ_PROGRAM_MEMORY.P2

ROM Allocation:
1236  @delay_ms1
0096  usb_ep_tx_type
00B6  usb_ep_rx_type
00D6  usb_ep_tx_size
0106  usb_ep_rx_size
0136  USB_CONFIG_DESC
018A  USB_NUM_INTERFACES
019C  USB_CLASS_DESCRIPTORS
01B4  USB_DEVICE_DESC
01D6  USB_STRING_DESC
02A8  @MUL1616
0B62  usb_tbe
10DA  usb_detach
1104  usb_attach
10FE  usb_init_cs
1126  usb_task
0BB0  usb_flush_in
0D9A  usb_put_packet
0A76  usb_flush_out
0D16  usb_rx_packet_size
0874  usb_stall_ep
081C  usb_unstall_ep
08CE  usb_endpoint_stalled
0D76  usb_set_address
0500  usb_set_configured
02C6  usb_disable_endpoint
0326  usb_disable_endpoints
0004  usb_clear_trn
100C  usb_isr
03BA  usb_isr_sof
0386  usb_isr_rst
021A  usb_init_ep0_setup
0248  usb_isr_uerr
03B0  usb_isr_uidle
020A  usb_isr_activity
023A  usb_isr_stall
03C0  usb_request_send_response
0998  usb_request_get_data
03C6  usb_request_stall
0E80  usb_isr_tok_dne
114A  usb_enumerated
035E  usb_token_reset
0250  usb_endpoint_is_valid
0E5E  usb_isr_tok_in_dne
0D64  usb_isr_tok_out_dne
0A42  usb_isr_tok_setup_dne
06DE  usb_isr_tkn_setup_StandardDevice
0784  usb_isr_tkn_setup_StandardInterface
0938  usb_isr_tkn_setup_StandardEndpoint
0450  usb_Get_Descriptor
0D8C  usb_finish_set_address
03CC  usb_copy_desc_seg_to_ep
0CBA  usb_isr_tok_out_cdc_control_dne
099E  usb_isr_tkn_cdc
0D52  usb_isr_tok_out_cdc_data_dne
0E54  usb_isr_tok_in_cdc_data_dne
0E36  usb_cdc_flush_out_buffer
033C  usb_cdc_init
1152  usb_cdc_putc_fast
11A6  usb_cdc_putc
125C  MAIN
108A  @const434
11DA  @PSTRINGCN_69
11F8  @PRINTF_X_69
125C  @cinit


User Memory space: 

User Memory space: 

Project Directory:
    D:\Documentos\Investigacion\NCOCELQCM\PICkit3\Modulo de Evaluacion\v2\

Project Files:
    modulo1.c
    C:\Program Files (x86)\PICC\devices\18F4550.h
    C:\Program Files (x86)\PICC\drivers\usb_cdc.h
    C:\Program Files (x86)\PICC\drivers\pic18_usb.h
    C:\Program Files (x86)\PICC\drivers\usb_hw_layer.h
    C:\Program Files (x86)\PICC\drivers\usb_desc_cdc.h
    C:\Program Files (x86)\PICC\drivers\usb.h
    C:\Program Files (x86)\PICC\drivers\usb.c
    C:\Program Files (x86)\PICC\drivers\pic18_usb.c
    C:\Program Files (x86)\PICC\drivers\ctype.h

Units:
    D:\Documentos\Investigacion\NCOCELQCM\PICkit3\Modulo de Evaluacion\v2\modulo1 (main)

Compiler Settings:
    Processor:      PIC18F4550
    Pointer Size:   16
    ADC Range:      0-255
    Opt Level:      9
    Short,Int,Long: UNSIGNED: 1,8,16
    Float,Double:   32,32

Output Files:
    Errors:      modulo1.err
    Ext Symbols: modulo1.esym
    INHX32:      modulo1.hex
    Symbols:     modulo1.sym
    List:        modulo1.lst
    Debug/COFF:  modulo1.cof
    Project:     modulo1.PJT
    Call Tree:   modulo1.tre
    Statistics:  modulo1.sta
