>>> Warning 203 "C:\Program Files (x86)\PICC\drivers\pic18_usb.c" Line 531(1,1): Condition always TRUE
>>> Warning 235 "NCO_py.c" Line 6(15,21): Unknown Pragma
>>> Warning 203 "NCO_py.c" Line 240(1,1): Condition always TRUE
>>> Warning 216 "NCO_py.c" Line 283(0,1): Interrupts disabled during call to prevent re-entrancy:  (usb_token_reset)
>>> Warning 216 "NCO_py.c" Line 283(0,1): Interrupts disabled during call to prevent re-entrancy:  (usb_flush_out)
>>> Warning 216 "NCO_py.c" Line 283(0,1): Interrupts disabled during call to prevent re-entrancy:  (usb_tbe)
>>> Warning 216 "NCO_py.c" Line 283(0,1): Interrupts disabled during call to prevent re-entrancy:  (usb_cdc_flush_out_buffer)
      Memory usage:   ROM=18%      RAM=20% - 23%
      0 Errors,  7 Warnings.
